<?xml version="1.0" encoding="UTF-8"?>
<testsuite name="apiauto.testReqres" tests="1" skipped="0" failures="0" errors="0" timestamp="2025-09-15T05:50:08" hostname="Ardellas-MacBook-Pro-2.local" time="6.877">
  <properties/>
  <testcase name="testGetUsers" classname="apiauto.testReqres" time="6.877"/>
  <system-out><![CDATA[HTTP/1.1 200 OK
Date: Mon, 15 Sep 2025 05:50:12 GMT
Content-Type: application/json; charset=utf-8
Transfer-Encoding: chunked
Connection: keep-alive
Content-Encoding: gzip
Access-Control-Allow-Credentials: true
Access-Control-Allow-Headers: Origin, X-Requested-With, Content-Type, Accept, Authorization, x-api-key
Access-Control-Allow-Methods: GET, POST, PUT, DELETE, OPTIONS
Access-Control-Allow-Origin: http://localhost:5173
Etag: W/"440-ZjsmMKR8P3usr2uJZbOCGCxC3Uw"
Nel: {"report_to":"heroku-nel","response_headers":["Via"],"max_age":3600,"success_fraction":0.01,"failure_fraction":0.1}
Ratelimit-Limit: 100
Ratelimit-Policy: 100;w=60
Ratelimit-Remaining: 98
Ratelimit-Reset: 60
Referrer-Policy: strict-origin-when-cross-origin
Report-To: {"group":"heroku-nel","endpoints":[{"url":"https://nel.heroku.com/reports?s=S6eqKPiwk9Ougz%2FGr%2FUxFRdL1%2BAZtP%2BOjtNOg6eXN3Q%3D\u0026sid=c4c9725f-1ab0-44d8-820f-430df2718e11\u0026ts=1757911072"}],"max_age":3600}
Reporting-Endpoints: heroku-nel="https://nel.heroku.com/reports?s=S6eqKPiwk9Ougz%2FGr%2FUxFRdL1%2BAZtP%2BOjtNOg6eXN3Q%3D&sid=c4c9725f-1ab0-44d8-820f-430df2718e11&ts=1757911072"
Vary: Origin, Accept-Encoding
Via: 1.1 heroku-router
X-Content-Type-Options: nosniff
X-Frame-Options: DENY
X-Request-Id: bd6ab3c2-6f60-70fd-3668-debabf71c2a3
X-Xss-Protection: 1; mode=block
Age: 4340
Cache-Control: max-age=14400
cf-cache-status: HIT
Server: cloudflare
CF-RAY: 97f5d85fac25f9b3-SIN
server-timing: cfL4;desc="?proto=TCP&rtt=25301&min_rtt=17489&rtt_var=11889&sent=7&recv=8&lost=0&retrans=0&sent_bytes=2816&recv_bytes=764&delivery_rate=238446&cwnd=252&unsent_bytes=0&cid=291981a617cc8a73&ts=257&x=0"

{
    "page": 2,
    "per_page": 6,
    "total": 12,
    "total_pages": 2,
    "data": [
        {
            "id": 7,
            "email": "michael.lawson@reqres.in",
            "first_name": "Michael",
            "last_name": "Lawson",
            "avatar": "https://reqres.in/img/faces/7-image.jpg"
        },
        {
            "id": 8,
            "email": "lindsay.ferguson@reqres.in",
            "first_name": "Lindsay",
            "last_name": "Ferguson",
            "avatar": "https://reqres.in/img/faces/8-image.jpg"
        },
        {
            "id": 9,
            "email": "tobias.funke@reqres.in",
            "first_name": "Tobias",
            "last_name": "Funke",
            "avatar": "https://reqres.in/img/faces/9-image.jpg"
        },
        {
            "id": 10,
            "email": "byron.fields@reqres.in",
            "first_name": "Byron",
            "last_name": "Fields",
            "avatar": "https://reqres.in/img/faces/10-image.jpg"
        },
        {
            "id": 11,
            "email": "george.edwards@reqres.in",
            "first_name": "George",
            "last_name": "Edwards",
            "avatar": "https://reqres.in/img/faces/11-image.jpg"
        },
        {
            "id": 12,
            "email": "rachel.howell@reqres.in",
            "first_name": "Rachel",
            "last_name": "Howell",
            "avatar": "https://reqres.in/img/faces/12-image.jpg"
        }
    ],
    "support": {
        "url": "https://contentcaddy.io?utm_source=reqres&utm_medium=json&utm_campaign=referral",
        "text": "Tired of writing endless social media content? Let Content Caddy generate it for you."
    }
}
]]></system-out>
  <system-err><![CDATA[]]></system-err>
</testsuite>
